Division,WeightClassKg,Place,Name,Team,BodyweightKg,Best3SquatKg,Best3BenchKg,Best3DeadliftKg,TotalKg,Equipment,Event,Sex
Boys,55.79,1,Steven Pham,Sunnyvale,51.94,90.72,49.9,122.47,263.08,Single-ply,SBD,M
Boys,51.71,2,Gio Gutierez,North Mesquite,51.26,83.91,43.09,92.99,219.99,Single-ply,SBD,M
Boys,51.71,3,Jeremy Hibler,Justin Northwest,41.5,63.5,38.56,90.72,192.78,Single-ply,SBD,M
Boys,51.71,DQ,Acevedo Yamil,West Mesquite,51.71,,63.5,113.4,,Single-ply,SBD,M
Boys,55.79,1,Crinstin Aleman,North Mesquite,54.88,92.99,79.38,99.79,272.16,Single-ply,SBD,M
Boys,55.79,2,Joseph Musgrove,Justin Northwest,55.34,65.77,61.23,127.01,254.01,Single-ply,SBD,M
Boys,55.79,3,Tyler Aldridge,Sunnyvale,54.66,72.57,47.63,77.11,197.31,Single-ply,SBD,M
Boys,55.79,DQ,Tyler Johnson,Richardson Berkner,54.43,127.01,,,,Single-ply,SBD,M
Boys,67.13,1,Kevonte Collier,South Garland,60.1,142.88,104.33,154.22,401.43,Single-ply,SBD,M
Boys,67.13,1,Ta'Varius Luke,North Mesquite,64.86,149.69,90.72,172.37,412.77,Single-ply,SBD,M
Boys,67.13,2,Houston Patterson,Justin Northwest,66.9,136.08,92.99,156.49,385.55,Single-ply,SBD,M
Boys,67.13,3,Gerardo Romo,North Mesquite,63.05,142.88,72.57,154.22,369.68,Single-ply,SBD,M
Boys,67.13,4,Trevor Bell,Sunnyvale,65.77,149.69,65.77,136.08,351.53,Single-ply,SBD,M
Boys,67.13,5,Matt Castillo,North Mesquite,60.78,124.74,65.77,149.69,340.19,Single-ply,SBD,M
Boys,67.13,6,Trtinstin Aleman,North Mesquite,62.6,108.86,77.11,142.88,328.85,Single-ply,SBD,M
Boys,67.13,7,Larry Gegbe,North Garland,63.05,122.47,79.38,115.67,317.51,Single-ply,SBD,M
Boys,67.13,8,Corvett Miles,West Mesquite,64.86,136.08,74.84,102.06,312.98,Single-ply,SBD,M
Boys,67.13,DQ,Diondre Jackson,North Mesquite,61.23,88.45,52.16,,,Single-ply,SBD,M
Boys,67.13,DQ,Cadarius Edwards,West Mesquite,67.13,,,,,Single-ply,SBD,M
Boys,67.13,DQ,Christian Chavez,North Garland,67.13,,,,,Single-ply,SBD,M
Boys,74.84,1,Abdul Khalaf,Sunnyvale,71.21,163.29,106.59,172.37,442.25,Single-ply,SBD,M
Boys,74.84,2,Arquel Rainwater,South Garland,74.16,154.22,108.86,163.29,426.38,Single-ply,SBD,M
Boys,74.84,3,Dylon Bonesteel,North Mesquite,68.04,142.88,97.52,172.37,412.77,Single-ply,SBD,M
Boys,74.84,4,Dra'Lyne Ricks,North Mesquite,74.84,136.08,97.52,174.63,408.23,Single-ply,SBD,M
Boys,74.84,5,Hed Wilson,South Garland,72.35,133.81,88.45,170.1,392.36,Single-ply,SBD,M
Boys,82.1,6,Yedidiah Louis,Richardson Berkner,75.07,131.54,88.45,158.76,378.75,Single-ply,SBD,M
Boys,74.84,7,Djuan Spigner,Richardson Berkner,68.95,131.54,97.52,147.42,376.48,Single-ply,SBD,M
Boys,74.84,8,Jacob Free,Justin Northwest,69.4,136.08,74.84,158.76,369.68,Single-ply,SBD,M
Boys,74.84,9,Malachi Smith,Richardson Berkner,70.99,133.81,83.91,142.88,360.61,Single-ply,SBD,M
Boys,74.84,10,Devin DeLeon,Sunnyvale,74.84,122.47,68.04,151.95,342.46,Single-ply,SBD,M
Boys,74.84,11,Clayton Puckett,Sunnyvale,72.57,131.54,83.91,124.74,340.19,Single-ply,SBD,M
Boys,74.84,12,Tristin Ramirez,North Mesquite,72.57,122.47,65.77,142.88,331.12,Single-ply,SBD,M
Boys,74.84,DQ,Edward Duong,North Garland,70.08,136.08,,136.08,,Single-ply,SBD,M
Boys,82.1,1,Darius Payne-Edwards,West Mesquite,79.61,201.85,108.86,181.44,492.15,Single-ply,SBD,M
Boys,82.1,2,Horace Borders,North Mesquite,78.47,165.56,122.47,181.44,469.47,Single-ply,SBD,M
Boys,82.1,3,Lane Allen,Justin Northwest,81.42,158.76,124.74,163.29,446.79,Single-ply,SBD,M
Boys,82.1,4,Triston Robertson,Richardson Berkner,80.06,158.76,99.79,181.44,439.98,Single-ply,SBD,M
Boys,82.1,5,Dylan Stooksberry,South Garland,81.87,158.76,113.4,142.88,415.04,Single-ply,SBD,M
Boys,82.1,6,Caleb Beard,Sunnyvale,82.1,97.52,61.23,129.27,288.03,Single-ply,SBD,M
Boys,82.1,DQ,Courbin Burton,South Garland,79.15,,104.33,158.76,,Single-ply,SBD,M
Boys,89.81,1,Cody Duffy,Justin Northwest,87.77,195.04,131.54,190.51,517.1,Single-ply,SBD,M
Boys,89.81,2,Nick Knox,North Mesquite,89.81,181.44,122.47,181.44,485.34,Single-ply,SBD,M
Boys,89.81,3,Dakota Mathers,South Garland,89.81,181.44,120.2,181.44,483.08,Single-ply,SBD,M
Boys,89.81,4,Darryl Battle,West Mesquite,87.77,174.63,106.59,195.04,476.27,Single-ply,SBD,M
Boys,89.81,5,Joe Randel,North Mesquite,88,165.56,95.25,163.29,424.11,Single-ply,SBD,M
Boys,89.81,6,Nathaniel Roseburrow,West Mesquite,89.81,158.76,88.45,138.35,385.55,Single-ply,SBD,M
Boys,89.81,7,Elizah Banks,North Mesquite,88.45,147.42,106.59,102.06,356.07,Single-ply,SBD,M
Boys,89.81,8,Dee Hill,Richardson Berkner,86.86,151.95,88.45,113.4,353.8,Single-ply,SBD,M
Boys,89.81,9,Roger Johnson,North Mesquite,86.64,136.08,83.91,129.27,349.27,Single-ply,SBD,M
Boys,89.81,10,Evan Prusha,Richardson Berkner,86.64,102.06,79.38,120.2,301.64,Single-ply,SBD,M
Boys,89.81,DQ,London Spain,North Mesquite,85.28,120.2,83.91,124.74,,Single-ply,SBD,M
Boys,89.81,DQ,Andre Thompson,West Mesquite,83.91,149.69,,174.63,,Single-ply,SBD,M
Boys,99.79,1,Leo Garcia,Justin Northwest,98.88,199.58,127.01,226.8,553.38,Single-ply,SBD,M
Boys,99.79,2,Azeez Adewale,West Mesquite,97.75,188.24,124.74,201.85,514.83,Single-ply,SBD,M
Boys,99.79,3,Jalen Scott,North Mesquite,97.07,181.44,108.86,181.44,471.74,Single-ply,SBD,M
Boys,99.79,4,Leo Delgado,South Garland,96.62,183.7,102.06,174.63,460.4,Single-ply,SBD,M
Boys,99.79,5,Joshua Cartwright,North Garland,95.03,158.76,106.59,183.7,449.06,Single-ply,SBD,M
Boys,99.79,6,Fikre Gebremichael,North Garland,98.2,179.17,86.18,167.83,433.18,Single-ply,SBD,M
Boys,99.79,7,Jose Villareal,North Garland,93.89,163.29,97.52,156.49,417.3,Single-ply,SBD,M
Boys,99.79,8,Miguel Medrano,North Garland,94.8,147.42,102.06,142.88,392.36,Single-ply,SBD,M
Boys,99.79,9,Rodney Darare,Richardson Berkner,93.89,124.74,61.23,113.4,299.37,Single-ply,SBD,M
Boys,99.79,DQ,Carter James,Justin Northwest,97.07,204.12,,233.6,,Single-ply,SBD,M
Boys,109.77,1,Clayton McGilvray,Justin Northwest,104.78,226.8,136.08,240.4,603.28,Single-ply,SBD,M
Boys,109.77,2,Donovan Parker,North Mesquite,104.33,226.8,147.42,226.8,601.01,Single-ply,SBD,M
Boys,109.77,3,Joe Gonzales,Justin Northwest,106.82,219.99,120.2,199.58,539.77,Single-ply,SBD,M
Boys,109.77,4,Mohammed Al-Rousan,Sunnyvale,100.7,154.22,106.59,147.42,408.23,Single-ply,SBD,M
Boys,109.77,5,Carl Theller,North Mesquite,102.06,142.88,104.33,145.15,392.36,Single-ply,SBD,M
Boys,109.77,6,Michael Sheveland,Sunnyvale,100.47,145.15,79.38,158.76,383.29,Single-ply,SBD,M
Boys,109.77,7,Taylor Tokar,Richardson Berkner,106.14,117.93,86.18,136.08,340.19,Single-ply,SBD,M
Boys,109.77,DQ,Terry Huynh,North Mesquite,108.86,138.35,79.38,165.56,,Single-ply,SBD,M
Boys,124.74,1,Travis Stubblefield,Justin Northwest,118.39,256.28,170.1,226.8,653.17,Single-ply,SBD,M
Boys,124.74,2,Dezmon Dilworth,North Mesquite,110.68,208.65,111.13,204.12,523.9,Single-ply,SBD,M
Boys,124.74,3,Justin Oleson,South Garland,110.68,201.85,117.93,181.44,501.22,Single-ply,SBD,M
Boys,124.74,4,Mike Nichols #2,North Mesquite,118.84,183.7,124.74,188.24,496.68,Single-ply,SBD,M
Boys,124.74,5,Mustafa Rabah,Sunnyvale,115.67,195.04,99.79,195.04,489.88,Single-ply,SBD,M
Boys,124.74,6,Jordan Davis,West Mesquite,124.28,172.37,127.01,170.1,469.47,Single-ply,SBD,M
Boys,124.74,7,Elijah Goodwin,West Mesquite,120.88,176.9,108.86,167.83,453.59,Single-ply,SBD,M
Boys,124.74,8,Darion Adams,Richardson Berkner,111.81,124.74,86.18,163.29,374.21,Single-ply,SBD,M
Boys,124.74,DQ,Brice Chambers,North Mesquite,115.67,147.42,79.38,147.42,,Single-ply,SBD,M
Boys,124.74,DQ,Jay Goodson,Richardson Berkner,117.03,181.44,,188.24,,Single-ply,SBD,M
Boys,124.74,DQ,Tj Talashek,Sunnyvale,121.11,208.65,,,,Single-ply,SBD,M
Boys,124.74+,1,Sean Langley,South Garland,136.98,265.35,149.69,204.12,619.15,Single-ply,SBD,M
Boys,124.74+,2,Zelarious Taylor,South Garland,132.45,226.8,158.76,174.63,560.19,Single-ply,SBD,M
Boys,124.74+,3,Josh Peterson,North Mesquite,136.08,226.8,102.06,176.9,505.76,Single-ply,SBD,M
Boys,124.74+,4,Dezmand Candelarie,North Mesquite,125.65,142.88,106.59,163.29,412.77,Single-ply,SBD,M
Boys,124.74+,DQ,Taylor Lacey,South Garland,125.19,,,,,Single-ply,SBD,M
