Name,Sex,State,BirthDate,Tested,Age,Division,BodyweightKg,WeightClassKg,Squat1Kg,Squat2Kg,Squat3Kg,Best3SquatKg,Bench1Kg,Bench2Kg,Bench3Kg,Best3BenchKg,Deadlift1Kg,Deadlift2Kg,Deadlift3Kg,Best3DeadliftKg,TotalKg,Place,Event,Equipment
Kalin Chester,M,FL,1984-07-22,Yes,23,M_JEM_AAPF,74,75,-250,-250,250,250,232.5,-245,-245,232.5,182.5,195,-210,195,677.5,1,SBD,Multi-ply
Mitchell McMahon,M,FL,,Yes,19,M_TEM_3_AAPF,106.4,110,280,-297.5,297.5,297.5,175,185,-192.5,185,205,225,240,240,722.5,2,SBD,Multi-ply
Nicholas Jensen,M,MD,1987-10-31,,20,M_JEM_APF,85.2,90,210,227.5,-255,227.5,107.5,140,145,145,205,217.5,227.5,227.5,600,1,SBD,Multi-ply
Dwayne Kouf,M,FL,1963-07-17,Yes,44,M_MEM_1_AAPF,100,100,300,327.5,-350,327.5,192.5,202.5,215,215,280,297.5,-320,297.5,840,1,SBD,Multi-ply
David Agostini,M,FL,,Yes,43,M_MEM_1_AAPF,75,75,217.5,227.5,245,245,142.5,155,167.5,167.5,207.5,227.5,242.5,242.5,655,2,SBD,Multi-ply
Dennis Pittman,M,FL,,,57,M_MEM_4_APF,81.6,82.5,217.5,-237.5,-237.5,217.5,157.5,165,-177.5,165,217.5,237.5,-252.5,237.5,620,1,SBD,Multi-ply
Dan Herring,M,FL,1958-02-18,,49,M_MEM_2_APF,89.8,90,262.5,282.5,-295,282.5,170,182.5,190,190,227.5,245,-250,245,717.5,2,SBD,Multi-ply
Vincent Donofrio,M,FL,,,53,M_MEM_3_APF,93.5,100,237.5,250,-262.5,250,160,167.5,-172.5,167.5,225,237.5,-240,237.5,655,3,SBD,Multi-ply
David Agostini,M,FL,1964-04-19,,43,M_MEM_1_APF,75,75,217.5,227.5,245,245,142.5,155,167.5,167.5,207.5,227.5,242.5,242.5,655,4,SBD,Multi-ply
Margaret Kirkland,F,FL,1963-10-22,Yes,44,F_OEM_AAPF,56.2,60,200,220,-232.5,220,92.5,102.5,112.5,112.5,175,197.5,202.5,202.5,535,1,SBD,Multi-ply
Stacey Manly,F,FL,,,36,F_OEM_APF,90,90,-227.5,240,-252.5,240,132.5,150,160,160,190,200,212.5,212.5,612.5,1,SBD,Multi-ply
Suzanne Mikolay,F,FL,1984-07-03,,23,F_OEM_APF,66,67.5,117.5,142.5,-155,142.5,80,95,105,105,117.5,137.5,147.5,147.5,395,2,SBD,Multi-ply
Bridget Reardon,F,FL,,,26,F_OEM_APF,55,56,110,-117.5,122.5,122.5,52.5,57.5,-62.5,57.5,107.5,117.5,-127.5,117.5,297.5,3,SBD,Multi-ply
Leigh-An Jaskiewicz,F,FL,,,38,F_OEM_APF,82,82.5,-320,-320,337.5,337.5,207.5,220,227.5,227.5,257.5,265,-275,265,830,1,SBD,Multi-ply
Tony Garland,M,FL,1971-01-07,,36,M_OEM_APF,82,82.5,282.5,307.5,-322.5,307.5,235,-245,-245,235,205,220,-235,220,762.5,2,SBD,Multi-ply
Sean Sharkey,M,FL,,,26,M_OEM_APF,82.5,82.5,175,185,190,190,122.5,132.5,137.5,137.5,215,225,230,230,557.5,3,SBD,Multi-ply
Tom Walyus,M,FL,,Yes,30,M_OEM_AAPF,89.8,90,287.5,-295,295,295,165,-180,180,180,247.5,260,-272.5,260,735,4,SBD,Multi-ply
Adam Driggers,M,FL,1973-03-11,,34,M_OEM_APF,89.8,90,-390,390,-420,390,275,292.5,-300,292.5,275,-297.5,297.5,297.5,980,1,SBD,Multi-ply
Trent Travis,M,FL,,,26,M_OEM_APF,84.6,90,247.5,277.5,285,285,-205,205,-225,205,227.5,237.5,250,250,740,2,SBD,Multi-ply
Scott Lamb,M,FL,,,31,M_OEM_APF,89.9,90,300,320,327.5,327.5,205,-222.5,,205,25,,,25,557.5,3,SBD,Multi-ply
Leigh-An Jaskiewicz,F,FL,,,28,F_OEM_APF,67.8,75,-157.5,-157.5,-157.5,,77.5,,,77.5,160,,,160,,DQ,SBD,Multi-ply
Jason Castigliono,M,FL,1983-01-27,Yes,24,M_OEM_AAPF,74.4,75,-267.5,-267.5,-267.5,,160,,,160,220,,,220,,DQ,SBD,Multi-ply
Ronnie Paras,M,FL,,Yes,45,M_OEM_AAPF,90,90,-327.5,-347.5,-347.5,,227.5,,,227.5,245,,,245,,DQ,SBD,Multi-ply
Lance Mosley,M,FL,1972-09-17,,35,M_OEM_APF,90,90,-360,-360,375,375,272.5,,,272.5,295,,,295,,DQ,SBD,Multi-ply
Tim McCoy,M,FL,1973-02-06,,34,M_OEM_APF,66,67.5,,,,,-160,-160,-160,,,,,,,DQ,SBD,Multi-ply
Greg Godwin,M,FL,1957-07-23,,50,M_OEM_APF,88.8,90,277.5,-285,-287.5,277.5,-180,-180,-180,,240,,,240,,DQ,SBD,Multi-ply
Brian Schwab,M,FL,1974-06-11,,33,M_OEM_APF,74.6,75,342.5,-357.5,357.5,357.5,245,265,272.5,272.5,-260,-260,-260,,,DQ,SBD,Multi-ply
TJ Faeser,M,MS,,,23,M_JEM_APF,89.6,90,,,,,-185,185,-205,185,,,,,185,1,B,Multi-ply
Kalin Chester,M,FL,1984-07-22,Yes,23,M_JEM_AAPF,74,75,,,,,232.5,-245,245,245,,,,,245,1,B,Multi-ply
Louis Sposato,M,FL,,Yes,68,M_MEM_6_AAPF,98,100,,,,,165,175,185,185,,,,,185,1,B,Multi-ply
Edward Fitzpatrick,M,FL,1948-05-29,Yes,59,M_MEM_4_AAPF,107,110,,,,,187.5,197.5,205,205,,,,,205,2,B,Multi-ply
Edward Fitzpatrick,M,FL,1948-05-29,,59,M_MEM_4_APF,107,110,,,,,187.5,197.5,205,205,,,,,205,1,B,Multi-ply
Keith Southwood,M,FL,1964-12-01,,43,M_MEM_1_APF,159,140+,,,,,275,-282.5,-282.5,275,,,,,275,2,B,Multi-ply
Vincent Donofrio,M,FL,,,53,M_MEM_3_APF,93.5,100,,,,,160,167.5,-172.5,167.5,,,,,167.5,3,B,Multi-ply
Brian Strickland,M,FL,1969-08-22,,38,M_OEM_APF,82,82.5,,,,,207.5,220,227.5,227.5,,,,,227.5,1,B,Multi-ply
John Williams,M,FL,,,31,M_OEM_APF,96,100,,,,,192.5,-202.5,-202.5,192.5,,,,,192.5,1,B,Multi-ply
Robert Schmidt #1,M,FL,1962-08-19,Yes,45,M_OEM_AAPF,99.6,100,285,300,325,325,192.5,197.5,205,205,247.5,262.5,-275,262.5,792.5,1,SBD,Multi-ply
Shawn O'Malley,M,FL,,Yes,45,M_OEM_AAPF,98.4,100,292.5,317.5,332.5,332.5,165,175,182.5,182.5,227.5,245,-257.5,245,760,2,SBD,Multi-ply
Clint Smith,M,FL,,,27,M_OEM_APF,99.8,100,-370,370,382.5,382.5,320,337.5,-350,337.5,272.5,307.5,-325,307.5,1027.5,1,SBD,Multi-ply
Brian Carroll,M,FL,,,26,M_OEM_APF,109.5,110,-435,435,457.5,457.5,320,-330,-330,320,307.5,320,330,330,1107.5,1,SBD,Multi-ply
Joe Norman,M,FL,,,39,M_OEM_APF,107.8,110,417.5,455,-467.5,455,240,-272.5,272.5,272.5,275,-322.5,-322.5,275,1002.5,2,SBD,Multi-ply
Jim Benson #1,M,GA,,,21,M_OEM_APF,105.8,110,395,-410,410,410,285,290,-297.5,290,267.5,277.5,,277.5,977.5,3,SBD,Multi-ply
Robert Weinstein,M,FL,,,41,M_OEM_APF,108.8,110,295,-320,-320,295,225,-240,240,240,252.5,272.5,-282.5,272.5,807.5,4,SBD,Multi-ply
Charles Bailey,M,FL,,,44,M_OEM_APF,122.2,125,440,470,-505,470,295,-320,320,320,300,330,-355,330,1120,1,SBD,Multi-ply
Shane Hammock,M,GA,,,20,M_OEM_APF,121.4,125,377.5,-387.5,-387.5,377.5,285,290,295,295,300,310,-320,310,982.5,2,SBD,Multi-ply
Glenn Baggett,M,FL,1973-04-22,,34,M_OEM_APF,111.8,125,365,385,395,395,-255,255,265,265,-265,265,285,285,945,3,SBD,Multi-ply
Greg Jurkowski,M,FL,,,44,M_OEM_APF,124.2,125,352.5,375,-387.5,375,215,-227.5,-227.5,215,317.5,-345,345,345,935,4,SBD,Multi-ply
Lester Estevez,M,FL,,,35,M_OEM_APF,124,125,402.5,420,-440,420,275,287.5,-295,287.5,137.5,,,137.5,845,5,SBD,Multi-ply
Nathan Bramlett,M,GA,,,42,M_OEM_APF,112.8,125,297.5,310,320,320,227.5,-240,-240,227.5,250,262.5,272.5,272.5,820,6,SBD,Multi-ply
Jeffrey Vaughn,M,FL,,,30,M_OEM_APF,135.4,140,-465,465,482.5,482.5,265,272.5,282.5,282.5,327.5,347.5,-352.5,347.5,1112.5,1,SBD,Multi-ply
John Manly,M,FL,,,44,M_OEM_APF,139.8,140,400,-432.5,-432.5,400,287.5,307.5,320,320,327.5,-345,345,345,1065,2,SBD,Multi-ply
Zak Freiwald,M,GA,,,33,M_OEM_APF,127.6,140,305,330,-340,330,235,-250,250,250,272.5,292.5,310,310,890,3,SBD,Multi-ply
Eric Holm,M,GA,1983-03-12,Yes,24,M_OEM_AAPF,97.8,100,,,,,175,187.5,-195,187.5,,,,,187.5,1,B,Multi-ply
Clint Smith,M,FL,,,27,M_OEM_APF,99.8,100,,,,,320,337.5,-350,337.5,,,,,337.5,1,B,Multi-ply
Chris Holloway,M,FL,,,28,M_OEM_APF,98.6,100,,,,,185,-205,205,205,,,,,205,2,B,Multi-ply
Scott Johnson,M,MS,,Yes,39,M_OEM_AAPF,108.4,110,,,,,185,-205,210,210,,,,,210,1,B,Multi-ply
Brian Carroll,M,FL,,,26,M_OEM_APF,109.5,110,,,,,320,-330,-330,320,,,,,320,1,B,Multi-ply
Mike Westerdale,M,FL,,,32,M_OEM_APF,109.8,110,,,,,227.5,245,262.5,262.5,,,,,262.5,2,B,Multi-ply
Keith Price,M,FL,,,40,M_OEM_APF,106.6,110,,,,,-192.5,192.5,-205,192.5,,,,,192.5,3,B,Multi-ply
Todd Gralnik,M,GA,1974-09-12,Yes,33,M_OEM_AAPF,134.8,140,,,,,275,-285,290,290,,,,,290,1,B,Multi-ply
Shane Baker,M,TN,1974-07-21,,33,M_OEM_APF,109.2,110,-280,-285,-290,,207.5,,,207.5,265,,,265,,DQ,SBD,Multi-ply
Scott Johnson,M,MS,1968-08-22,Yes,39,M_OEM_AAPF,108.4,110,-307.5,-307.5,-307.5,,185,,,185,227.5,,,227.5,,DQ,SBD,Multi-ply
Matthew Christie,M,GA,,Yes,25,M_OEM_AAPF,99.6,100,-342.5,-342.5,-342.5,,227.5,,,227.5,272.5,,,272.5,,DQ,SBD,Multi-ply
Christian Simmons,M,MS,,,27,M_OEM_APF,97.6,100,-460,-460,460,460,327.5,,,327.5,305,,,305,,DQ,SBD,Multi-ply
Jeff Brandon,M,TN,1969-06-09,,38,M_OEM_APF,137.4,140,-397.5,-410,-410,,237.5,,,237.5,327.5,,,327.5,,DQ,SBD,Multi-ply
Dan Kovacs,M,PA,,,37,M_OEM_APF,135.8,140,,,,,-392.5,-392.5,-392.5,,,,,,,DQ,SBD,Multi-ply
Nathan Posey,M,FL,,Yes,24,M_OEM_AAPF,110,110,270,-280,-280,270,197.5,-205,,197.5,-265,,,,,DQ,SBD,Multi-ply
