Name,WeightClassKg,Division,Sex,Best3SquatKg,Best3BenchKg,Best3DeadliftKg,TotalKg,Event,Equipment,Place
B. Meleon,52,Open,M,122.47,68.04,131.54,322.05,SBD,Single-ply,1
Ken Willem,52,Open,M,113.4,70.31,127.01,310.71,SBD,Single-ply,2
Pam Landy,52,Open,F,99.79,49.9,122.47,272.16,SBD,Single-ply,3
Linda Scanlon,52,Open,F,74.84,38.56,86.18,199.58,SBD,Single-ply,4
Keith Doyne,56,Open,M,117.93,92.99,106.59,317.52,SBD,Single-ply,1
P. Garofalo,56,Open,F,83.91,34.02,92.99,210.92,SBD,Single-ply,2
J. Amjos,60,Open,M,181.44,102.06,185.97,469.47,SBD,Single-ply,1
Stewart Cameron,60,Open,M,165.56,104.33,192.78,462.66,SBD,Single-ply,2
Gary Burton,60,Open,M,158.76,111.13,192.78,462.66,SBD,Single-ply,3
I. Weiner,60,Open,M,111.13,81.65,149.69,342.46,SBD,Single-ply,4
A. Ruthledge,60,Open,M,111.13,77.11,147.42,335.66,SBD,Single-ply,5
Kurt Feldman,67.5,Open,M,215.46,136.08,233.6,585.13,SBD,Single-ply,1
Tim Eiseman,67.5,Open,M,197.31,113.4,254.01,564.72,SBD,Single-ply,2
W. Wiener,67.5,Open,M,190.51,129.27,217.72,537.51,SBD,Single-ply,3
M. Zoebaughlt,67.5,Open,M,185.97,122.47,226.8,535.24,SBD,Single-ply,4
G. Wolf,67.5,Open,M,206.38,120.2,201.85,528.44,SBD,Single-ply,5
Jim Panetti,67.5,Open,M,181.44,136.08,204.12,521.63,SBD,Single-ply,6
V. Parets,67.5,Open,M,149.69,106.59,172.37,428.65,SBD,Single-ply,7
G. Mayers,67.5,Open,M,158.76,70.31,181.44,410.5,SBD,Single-ply,8
R. Martinez,67.5,Open,M,124.74,106.59,167.83,399.16,SBD,Single-ply,9
R. Ferro,67.5,Open,M,131.54,88.45,165.56,385.55,SBD,Single-ply,10
C. Carbonia,67.5,Open,M,172.37,58.97,149.69,381.02,SBD,Single-ply,11
R. Nilson,67.5,Open,M,158.76,108.86,,,SBD,Single-ply,DQ
Doug Haines,67.5,Open,M,,124.74,,124.74,B,Raw,1
Dale Wolf,75,Open,M,249.48,129.27,258.55,637.3,SBD,Single-ply,1
Scott Shiplett,75,Open,M,238.14,147.42,226.8,612.35,SBD,Single-ply,2
John Cavanaugh,75,Open,M,213.19,129.27,258.55,601.01,SBD,Single-ply,3
Paul Billero,75,Open,M,208.65,142.88,238.14,589.67,SBD,Single-ply,4
R. Walsh,75,Open,M,226.8,129.27,219.99,576.06,SBD,Single-ply,5
Vincent Faust,75,Open,M,181.44,138.35,238.14,557.92,SBD,Single-ply,6
Paul Champion,75,Open,M,192.78,108.86,249.48,551.12,SBD,Single-ply,7
K. Abel,75,Open,M,183.71,120.2,192.78,496.68,SBD,Single-ply,8
M. Maler,75,Open,M,165.56,108.86,188.24,462.66,SBD,Single-ply,10
S. Middleton,75,Open,M,147.42,127.01,190.51,464.93,SBD,Single-ply,9
D. Massa,75,Open,M,158.76,104.33,199.58,462.66,SBD,Single-ply,11
J. Mazzola,75,Open,F,90.72,47.63,117.93,256.28,SBD,Single-ply,12
M. Salandra,75,Open,M,,120.2,,120.2,B,Raw,1
Bert Marchio,82.5,Open,M,260.82,154.22,285.76,700.8,SBD,Single-ply,1
R. Deller,82.5,Open,M,244.94,145.15,272.16,662.25,SBD,Single-ply,2
Vic Scaranda,82.5,Open,M,226.8,131.54,265.35,623.69,SBD,Single-ply,3
Ray Penna,82.5,Open,M,226.8,145.15,240.4,612.35,SBD,Single-ply,4
R. Miller,82.5,Open,M,204.12,127.01,233.6,564.72,SBD,Single-ply,5
R. Wuss,82.5,Open,M,183.71,154.22,226.8,564.72,SBD,Single-ply,6
J. Cernuto,82.5,Open,M,197.31,145.15,215.46,557.92,SBD,Single-ply,7
T. Kinard,82.5,Open,M,199.58,129.27,219.99,548.85,SBD,Single-ply,8
Tim McClellan,82.5,Open,M,185.97,115.67,206.38,508.02,SBD,Single-ply,9
B. Erean,90,Open,M,240.4,136.08,260.82,637.3,SBD,Single-ply,1
V. Trune,90,Open,M,219.99,120.2,263.08,603.28,SBD,Single-ply,2
R. McCurry,90,Open,M,201.85,127.01,238.14,566.99,SBD,Single-ply,3
M. Majeski,90,Open,M,174.63,120.2,242.67,537.51,SBD,Single-ply,4
Pete Buzy,90,Open,M,294.84,,,,SBD,Single-ply,DQ
M. Cohen,90,Open,M,206.38,,,,SBD,Single-ply,DQ
Mike Metchikian,100,Open,M,299.37,199.58,272.16,771.11,SBD,Single-ply,1
Scott Edmiston,100,Open,M,285.76,172.37,285.76,743.89,SBD,Single-ply,2
Tom Kelly,100,Open,M,267.62,190.51,278.96,737.09,SBD,Single-ply,3
Ken Toth,100,Open,M,294.84,161.03,258.55,714.41,SBD,Single-ply,4
J. Szpiech,100,Open,M,231.33,158.76,260.82,650.91,SBD,Single-ply,5
Dave Abramson,100,Open,M,244.94,151.95,240.4,637.3,SBD,Single-ply,6
C. Hagen,100,Open,M,233.6,142.88,249.48,625.96,SBD,Single-ply,7
D. Houser,100,Open,M,183.71,131.54,217.72,532.97,SBD,Single-ply,8
Nancy Ostroff,100,Open,F,138.35,86.18,154.22,378.75,SBD,Single-ply,9
T. Majeski,100,Open,M,170.1,,,,SBD,Single-ply,DQ
Kevin Caulfield,110,Open,M,335.66,208.65,285.76,830.08,SBD,Single-ply,1
T. Kinard,110,Open,M,272.16,179.17,288.03,739.36,SBD,Single-ply,2
Anthony Daniele,110,Open,M,285.76,165.56,244.94,696.27,SBD,Single-ply,3
Henri Skiba,110,Open,M,272.16,167.83,249.48,689.46,SBD,Single-ply,4
Henry Ricci,110,Open,M,254.01,172.37,258.55,684.93,SBD,Single-ply,5
B. Petucelli,110,Open,M,263.08,151.95,254.01,669.05,SBD,Single-ply,6
J. Cottone,125+,Open,M,217.72,147.42,226.8,591.94,SBD,Single-ply,1
