Place,Name,Division,Sex,BirthDate,BodyweightKg,WeightClassKg,Squat1Kg,Squat2Kg,Squat3Kg,Best3SquatKg,Bench1Kg,Bench2Kg,Bench3Kg,Best3BenchKg,Deadlift1Kg,Deadlift2Kg,Deadlift3Kg,Best3DeadliftKg,TotalKg,Equipment,Event
1,Anja Schreiner,Open,F,1993-07-30,50.5,52,80,90,100,100,60,67.5,-72.5,67.5,115,-125,-130,115,282.5,Single-ply,SBD
1,Petra Dietmayr,Masters 1,F,1967-02-17,61.3,63,60,70,75,75,50,52.5,55,55,-100,100,110,110,240,Single-ply,SBD
1,Rosina Polster,Open,F,1984-11-17,72,72,-125,130,140,140,100,105,-110,105,135,150,-157.5,150,395,Single-ply,SBD
1,Veronika Kondraschow,Open,F,1989-08-20,79.3,84,125,135,140,140,60,65,70,70,125,142.5,160,160,370,Single-ply,SBD
1,Martina Segerer,Open,F,1980-07-29,99.3,84+,-170,-170,170,170,100,-105,-105,100,165,175,-182.5,175,445,Single-ply,SBD
1,Alexander Diepold,Masters 4,M,1937-10-07,64.2,66,130,140,-150,140,-102.5,102.5,105,105,135,145,-150.5,145,390,Single-ply,SBD
1,Michael Wimmer,Masters 2,M,1961-11-29,65.8,66,140,150,160,160,90,95,100,100,170,180,190,190,450,Single-ply,SBD
DQ,Peter Rothe,Masters 2,M,1956-01-18,72.7,74,50,,,50,-90,-90,-90,,120,-127.5,,120,,Single-ply,SBD
1,Ulrich Mielich,Masters 4,M,1939-11-25,73.2,74,75,85,92.5,92.5,60,65,-67.5,65,110,120,130,130,287.5,Single-ply,SBD
1,Marc Polster,Open,M,1986-05-05,73.4,74,215,-230,245,245,140,-155,-155,140,205,245,255,255,640,Single-ply,SBD
1,Johann Goldstein,Masters 2,M,1957-12-07,73.7,74,150,160,170,170,125,130,132.5,132.5,180,205,210,210,512.5,Single-ply,SBD
2,Pascal Peukert,Open,M,1985-10-14,74,74,160,-170,170,170,145,-152.5,,145,180,202.5,210,210,525,Single-ply,SBD
2,Reik Schindler,Open,M,1974-10-22,79.2,83,205,215,220,220,-117.5,117.5,-122.5,117.5,200,215,220,220,557.5,Single-ply,SBD
1,János Geerhardt,Masters 1,M,1967-08-15,79.9,83,185,200,-212.5,200,115,-120,122.5,122.5,205,215,,215,537.5,Single-ply,SBD
1,Robert Robeis,Masters 2,M,1958-05-13,81.4,83,170,180,-190,180,100,105,-107.5,105,240,260,-280,260,545,Single-ply,SBD
3,Rolf Gross,Open,M,1981-02-07,81.7,83,-150,160,-190,160,112.5,-120,-120,112.5,180,200,215,215,487.5,Single-ply,SBD
1,Viktor Prokopov,Open,M,1994-07-13,82.3,83,210,222.5,232.5,232.5,-115,115,-120,115,205,220,225,225,572.5,Single-ply,SBD
DQ,Andreas Staude,Open,M,1979-04-07,82.8,83,-230,-230,-230,,-160,-170,-170,,240,-270,275,275,,Single-ply,SBD
1,Rainer Schötz,Masters 4,M,1943-03-30,83.2,93,-140,150,167.5,167.5,110,120,-125,120,175,190,200,200,487.5,Single-ply,SBD
1,Ricardo Schunk,Masters 1,M,1970-02-06,84.7,93,210,220,-235,220,165,170,175,175,220,-230,-230,220,615,Single-ply,SBD
1,Josef Weiß,Masters 2,M,1954-06-09,85.3,93,100,120,-130,120,60,85,,85,-170,170,190,190,395,Single-ply,SBD
DQ,Michael Herzog,Open,M,1978-01-30,87.5,93,240,250,260,260,190,-200,200,200,-235,-240,-240,,,Single-ply,SBD
DQ,Oliver Wohlmuth,Open,M,1989-06-22,88.1,93,180,190,-200,190,145,-150,150,150,-215,-215,-215,,,Single-ply,SBD
DQ,Guido Meier,Masters 1,M,1966-05-16,90.8,93,150,-195,200,200,125,135,-145,135,-240,-240,-240,,,Single-ply,SBD
3,Wolfgang Straßer,Open,M,1989-05-28,91.9,93,220,235,250,250,165,175,185,185,-215,215,237.5,237.5,672.5,Single-ply,SBD
2,Thomas Starklauf,Open,M,1989-12-19,92.1,93,-235,-247.5,255,255,145,152.5,157.5,157.5,247.5,260,265,265,677.5,Single-ply,SBD
1,Sebastian Kaindl,Open,M,1982-06-26,93,93,260,272.5,-277.5,272.5,170,180,185,185,270,285,-295,285,742.5,Single-ply,SBD
2,Kai Döring,Open,M,1976-08-18,95.8,105,165,-175,180,180,100,-140,140,140,200,215,-230,215,535,Single-ply,SBD
1,Josef Sussbauer,Masters 2,M,1955-11-08,97.9,105,145,160,175,175,55,65,-75,65,-190,195,207.5,207.5,447.5,Single-ply,SBD
1,Thomas Reichel,Open,M,1987-01-16,100.3,105,260,270,-277.5,270,190,-200,-200,190,265,275,-282.5,275,735,Single-ply,SBD
1,Thomas Ziegler,Masters 1,M,1967-08-01,102.2,105,235,-245,245,245,-177.5,177.5,182.5,182.5,240,255,257.5,257.5,685,Single-ply,SBD
3,Thorsten Thenhart,Open,M,1975-08-03,105.3,120,240,250,260,260,165,172.5,180,180,220,235,-250,235,675,Single-ply,SBD
2,Lars Krüger,Open,M,1990-10-16,109.2,120,240,,,240,-165,170,185,185,240,260,-275,260,685,Single-ply,SBD
1,Hubert Krämer,Masters 2,M,1959-09-12,113.6,120,-200,-210,210,210,120,130,-135,130,220,-240.5,-240.5,220,560,Single-ply,SBD
1,Bastian Grüner,Open,M,1986-12-10,119.3,120,270,-280,,270,165,175,-182.5,175,245,260,270,270,715,Single-ply,SBD
1,Dr. Hans-Peter Zweck,Masters 1,M,1965-08-26,128.6,120+,225,235,242.5,242.5,185,-190,,185,225,235,-242.5,235,662.5,Single-ply,SBD
1,Marco Kammerer,Open,M,1975-04-29,143.7,120+,-160,160,180,180,115,122.5,-130,122.5,180,200,-225,200,502.5,Single-ply,SBD
