Name,Sex,BodyweightKg,WeightClassKg,Division,Event,Equipment,Squat1Kg,Squat2Kg,Squat3Kg,Best3SquatKg,Bench1Kg,Bench2Kg,Bench3Kg,Best3BenchKg,Deadlift1Kg,Deadlift2Kg,Deadlift3Kg,Deadlift4Kg,Best3DeadliftKg,TotalKg,Place
TJ Cox,M,82,82.5,T 13-15,B,Raw,,,,,90,95,97.5,97.5,,,,,,97.5,1
Matt Deibert,M,80.4,82.5,M 40-44,B,Raw,,,,,120,135,-142.5,135,,,,,,135,1
Justin Lindley,M,89,90,M 40-44,B,Raw,,,,,150,162.5,165,165,,,,,,165,1
Dan Swift,M,88.6,90,M 65-69,B,Raw,,,,,157.5,-175,175,175,,,,,,175,1
Tom Finn,M,99.2,100,Open,B,Raw,,,,,215,-227.5,-227.5,215,,,,,,215,1
Ethan Houge,M,121.7,125,T 18-19,B,Raw,,,,,150,-165,165,165,,,,,,165,1
Terry Cox,M,139.1,140,M 45-49,B,Raw,,,,,182.5,187.5,-190,187.5,,,,,,187.5,1
Gerald Lindas,M,70.5,75,M 75-79,B,Multi-ply,,,,,107.5,112.5,-115,112.5,,,,,,112.5,1
Randy Egli,M,82.5,82.5,M 60-64,B,Multi-ply,,,,,-200,-200,,,,,,,,,DQ
Tim Moon,M,124.2,125,M 50-54,B,Multi-ply,,,,,345,367.5,-375,367.5,,,,,,367.5,1
Cozy Cozine,M,119,125,M 55-59,B,Multi-ply,,,,,-200,200,-213,200,,,,,,200,1
Clay Barnett,M,116.5,125,M 60-64,B,Multi-ply,,,,,-185,-185,,,,,,,,,DQ
Jessica Moushon,F,70,75,T 18-19,SBD,Wraps,100,110,-120,110,62.5,70,-72.5,70,142.5,152.5,155,,155,335,1
Rachel Lindley,F,71.7,75,Open,SBD,Wraps,102.5,110,117.5,117.5,65,70,72.5,72.5,142.5,147.5,157.5,,157.5,347.5,1
Micaela Soto,F,75,75,Open,SBD,Wraps,75,82.5,97.5,97.5,40,47.5,-52.5,47.5,102.5,120,127.5,,127.5,272.5,2
Jenna Loudenburg,F,75.3,82.5,Juniors,SBD,Wraps,112.5,120,-127.5,120,52.5,-57.5,57.5,57.5,100,105,-117.5,,105,282.5,1
Patrick Kelly,M,67.5,67.5,Open,SBD,Wraps,162.5,177.5,190,190,105,112.5,-122.5,112.5,185,200,-205,,200,502.5,1
Nick Hardy,M,66.9,67.5,Open,SBD,Wraps,147.5,155,162.5,162.5,105,-115,-122.5,105,197.5,210,220,-227.5,220,487.5,2
Matthew Webb,M,68.6,75,T 13-15,SBD,Wraps,82.5,100,110,110,62.5,75,-80,75,142.5,160,172.5,,172.5,357.5,1
James Greaves,M,73.2,75,T 16-17,SBD,Wraps,92.5,110,115,115,82.5,92.5,97.5,97.5,152.5,172.5,182.5,,182.5,395,1
Christian Washburn,M,89.2,90,T 16-17,SBD,Wraps,120,147.5,-165,147.5,90,-102.5,-102.5,90,117.5,-130,130,,130,367.5,1
Ethan Houge,M,121.7,125,T 18-19,SBD,Wraps,-195,195,,195,150,-165,165,165,200,220,240,,240,600,1
Tom Kallas,M,74.4,75,Juniors,SBD,Wraps,272.5,290,307.5,307.5,140,147.5,-155,147.5,230,250,265,,265,720,1
Sergio Luna,M,75,75,Juniors,SBD,Wraps,210,230,240,240,125,132.5,142.5,142.5,220,230,237.5,,237.5,620,2
Paul Burdess,M,73,75,Open,SBD,Wraps,145,150,155,155,-145,150,160,160,177.5,192.5,200,,200,515,1
Kevin Hamann,M,74.3,75,Open,SBD,Wraps,62.5,77.5,,77.5,112.5,125,132.5,132.5,197.5,205,,,205,415,2
Caleb Horn,M,75.2,82.5,Juniors,SBD,Wraps,137.5,160,187.5,187.5,90,107.5,-115,107.5,172.5,-232.5,,,172.5,467.5,1
Richard Mulnix,M,79,82.5,Open,SBD,Wraps,142.5,145,150,150,107.5,117.5,120,120,217.5,230,237.5,,237.5,507.5,1
Jeff Nimrick II,M,83.9,90,Juniors,SBD,Wraps,190,210,-227.5,210,157.5,-170,170,170,190,210,,,210,590,1
Ernie Lilliebridge Jr,M,90,90,Open,SBD,Wraps,305,332.5,-355,332.5,185,200,-210,200,320,337.5,-352.5,,337.5,870,1
Kevin Stewart,M,88.1,90,Open,SBD,Wraps,195,212.5,-217.5,212.5,135,140,145,145,235,252.5,-260,,252.5,610,2
Matthew Burdess,M,87.1,90,Open,SBD,Wraps,197.5,205,-215,205,105,120,-137.5,120,212.5,227.5,-250,,227.5,552.5,3
Michael Rummel,M,147.9,140+,M 50-54,SBD,Wraps,162.5,172.5,180,180,-115,-115,115,115,210,-217.5,217.5,,217.5,512.5,1
Ryleigh Clark,M,98.5,100,Juniors,SBD,Wraps,-270,270,-287.5,270,170,182.5,190,190,250,-272.5,277.5,,277.5,737.5,1
Mitchell Wilt,M,97.7,100,Juniors,SBD,Wraps,197.5,215,227.5,227.5,145,150,-162.5,150,227.5,245,255,,255,632.5,2
Jeffrey Calderone,M,99,100,Juniors,SBD,Wraps,197.5,202.5,205,205,120,125,-130,125,225,-235,235,,235,565,3
Timothy Robbins,M,98.9,100,M 40-44,SBD,Wraps,97.5,117.5,137.5,137.5,67.5,85,-102.5,85,142.5,167.5,182.5,,182.5,405,1
Jacob Obert,M,98.6,100,Open,SBD,Wraps,185,200,-220,200,142.5,157.5,-165,157.5,265,280,-295,,280,637.5,1
Matthew Richmond,M,97.5,100,Open,SBD,Wraps,142.5,150,165,165,147.5,155,160,160,182.5,217.5,240,,240,565,2
Shayne Neubert,M,107.5,110,Juniors,SBD,Wraps,265,-287.5,-295,265,167.5,177.5,185,185,282.5,300,-310,,300,750,1
TJ Kerber,M,107.5,110,Open,SBD,Wraps,235,-252.5,-252.5,235,160,-167.5,-167.5,160,250,267.5,272.5,,272.5,667.5,1
Tim Pool,M,108,110,Open,SBD,Wraps,215,225,235,235,130,135,140,140,230,240,250,,250,625,2
Michael Moore #1,M,116.2,125,Open,SBD,Wraps,272.5,292.5,320,320,182.5,202.5,210,210,297.5,320,-335,,320,850,1
Jon Jursich,M,125,125,Open,SBD,Wraps,282.5,-302.5,-320,282.5,182.5,-197.5,-197.5,182.5,260,280,295,,295,760,2
Ernie Lilliebridge Sr,M,139.1,140,M 40-44,SBD,Wraps,345,-365,-380,345,200,210,,210,325,-352.5,,,325,880,1
Daniel Bell #1,M,138.1,140,Open,SBD,Wraps,357.5,370,-380,370,192.5,205,215,215,320,332.5,-340,,332.5,917.5,1
Ernie Lilliebridge Sr,M,139.1,140,Open,SBD,Wraps,345,-365,-380,345,200,210,,210,325,-352.5,,,325,880,2
Ryan Ludlum,M,133.2,140,Open,SBD,Wraps,265,282.5,-302.5,282.5,125,142.5,152.5,152.5,255,272.5,282.5,,282.5,717.5,3
Michelle Moodie,F,64.6,67.5,M 45-49,SBD,Multi-ply,175,187.5,-202.5,187.5,90,-92.5,,90,177.5,-187.5,,,177.5,455,1
Jodi Parkhurst,F,82.5,82.5,M 40-44,SBD,Multi-ply,137.5,-150,-155,137.5,77.5,90,-95,90,115,-125,,,115,342.5,1
Mark Calvert,M,80.5,82.5,M 45-49,SBD,Multi-ply,165,172.5,,172.5,95,102.5,105,105,165,177.5,,,177.5,455,1
Jake Mansfield,M,96.1,100,Open,SBD,Multi-ply,-290,300,-317.5,300,-150,150,,150,210,240,260,,260,710,1
